<svg xmlns="http://www.w3.org/2000/svg" viewBox="-7931.353 1740.918 9.439 9.139">
  <defs>
    <style>
      .cls-1 {
        fill: #989898;
      }
    </style>
  </defs>
  <g id="Group_90" data-name="Group 90" transform="translate(-7931.37 1740.895)">
    <path id="Path_37" data-name="Path 37" class="cls-1" d="M9.338,4.482A.449.449,0,0,0,9.3,3.839L5.082.146A.527.527,0,0,0,4.4.155L.164,4.036a.448.448,0,0,0-.022.643l.1.111a.459.459,0,0,0,.634.049L1.2,4.556V8.7a.461.461,0,0,0,.462.462h1.65A.461.461,0,0,0,3.771,8.7V5.8H5.876V8.7a.436.436,0,0,0,.434.462H8.058A.461.461,0,0,0,8.52,8.7V4.611l.194.172c.108.1.332.018.5-.169Z" transform="translate(0 0)"/>
  </g>
</svg>
