<svg xmlns="http://www.w3.org/2000/svg" viewBox="0 0 5.444 10.858">
  <defs>
    <style>
      .cls-1 {
        fill: #fff;
      }
    </style>
  </defs>
  <g id="facebook_1_" data-name="facebook (1)" transform="translate(-7.986 -5.309)">
    <path id="Path_5" data-name="Path 5" class="cls-1" d="M113.181,74.614h1.4V72.547h-1.645v.007c-1.993.071-2.4,1.191-2.438,2.368h0v1.032h-1.357v2.024h1.357v5.426h2.045V77.979h1.676l.324-2.024h-2v-.624A.667.667,0,0,1,113.181,74.614Z" transform="translate(-101.15 -67.238)"/>
  </g>
</svg>
