<svg xmlns="http://www.w3.org/2000/svg" viewBox="-3516.052 1092 25.314 25.314">
  <defs>
    <style>
      .cls-1 {
        fill: #007ab9;
      }

      .cls-2 {
        fill: #f1f2f2;
      }
    </style>
  </defs>
  <g id="Group_3" data-name="Group 3" transform="translate(-3516.052 1092)">
    <circle id="Ellipse_2" data-name="Ellipse 2" class="cls-1" cx="12.657" cy="12.657" r="12.657" transform="translate(0 0)"/>
    <g id="Group_2" data-name="Group 2" transform="translate(6.114 5.415)">
      <path id="Path_2" data-name="Path 2" class="cls-2" d="M41.2,32.257v5.212H38.178V32.618c0-1.218-.429-2.053-1.534-2.053a1.673,1.673,0,0,0-1.557,1.106,1.931,1.931,0,0,0-.09.745v5.076H31.973s.045-8.235,0-9.092H35v1.286l-.023.023H35v-.023a3.045,3.045,0,0,1,2.73-1.512c1.985,0,3.474,1.286,3.474,4.084ZM28.815,24a1.583,1.583,0,1,0-.045,3.159h.023A1.584,1.584,0,1,0,28.815,24ZM27.28,37.469H30.3V28.377H27.28Z" transform="translate(-27.1 -24)"/>
    </g>
  </g>
</svg>
