<svg xmlns="http://www.w3.org/2000/svg" viewBox="0 0 88 88.796">
  <defs>
    <style>
      .cls-1, .cls-4 {
        fill: #fff;
      }

      .cls-1 {
        opacity: 0;
      }

      .cls-2 {
        fill: #d8dce1;
      }

      .cls-3 {
        fill: #01b5f6;
      }

      .cls-5 {
        fill: #5c546a;
      }

      .cls-6 {
        fill: #06a024;
      }
    </style>
  </defs>
  <g id="Group_69" data-name="Group 69" transform="translate(738 -416)">
    <rect id="Rectangle_4" data-name="Rectangle 4" class="cls-1" width="88" height="88" transform="translate(-738 416)"/>
    <g id="Group_42" data-name="Group 42" transform="translate(-744.796 388.204)">
      <g id="calendar" transform="translate(6.796 28.796)">
        <g id="Group_11" data-name="Group 11" transform="translate(0 22.127)">
          <path id="Path_8" data-name="Path 8" class="cls-2" d="M0,134v58.531a7.011,7.011,0,0,0,6.859,7.138H80.937a7.011,7.011,0,0,0,6.859-7.138V134Z" transform="translate(0 -134)"/>
        </g>
        <g id="Group_12" data-name="Group 12" transform="translate(0 2.141)">
          <path id="Path_9" data-name="Path 9" class="cls-3" d="M80.937,22H6.859A7.011,7.011,0,0,0,0,29.138V41.986H87.8V29.138A7.011,7.011,0,0,0,80.937,22ZM10.975,36.276a4.286,4.286,0,0,1,0-8.565,4.286,4.286,0,0,1,0,8.565Zm65.847,0a4.286,4.286,0,1,1,4.115-4.283A4.2,4.2,0,0,1,76.822,36.276Z" transform="translate(0 -22)"/>
        </g>
        <g id="Group_28" data-name="Group 28" transform="translate(10.975 34.976)">
          <g id="Group_13" data-name="Group 13" transform="translate(27.436)">
            <path id="Path_10" data-name="Path 10" class="cls-4" d="M229.487,206a5.715,5.715,0,1,0,5.487,5.71A5.608,5.608,0,0,0,229.487,206Z" transform="translate(-224 -206)"/>
          </g>
          <g id="Group_14" data-name="Group 14" transform="translate(13.718)">
            <path id="Path_11" data-name="Path 11" class="cls-4" d="M149.487,206a5.715,5.715,0,1,0,5.487,5.71A5.608,5.608,0,0,0,149.487,206Z" transform="translate(-144 -206)"/>
          </g>
          <g id="Group_15" data-name="Group 15">
            <path id="Path_12" data-name="Path 12" class="cls-4" d="M69.487,206a5.715,5.715,0,1,0,5.487,5.71A5.608,5.608,0,0,0,69.487,206Z" transform="translate(-64 -206)"/>
          </g>
          <g id="Group_16" data-name="Group 16" transform="translate(41.154)">
            <path id="Path_13" data-name="Path 13" class="cls-4" d="M309.487,206a5.715,5.715,0,1,0,5.487,5.71A5.608,5.608,0,0,0,309.487,206Z" transform="translate(-304 -206)"/>
          </g>
          <g id="Group_17" data-name="Group 17" transform="translate(54.873)">
            <path id="Path_14" data-name="Path 14" class="cls-4" d="M389.487,217.421A5.715,5.715,0,1,0,384,211.71,5.608,5.608,0,0,0,389.487,217.421Z" transform="translate(-384 -206)"/>
          </g>
          <g id="Group_18" data-name="Group 18" transform="translate(27.436 14.276)">
            <path id="Path_15" data-name="Path 15" class="cls-4" d="M229.487,286a5.715,5.715,0,1,0,5.487,5.71A5.608,5.608,0,0,0,229.487,286Z" transform="translate(-224 -286)"/>
          </g>
          <g id="Group_19" data-name="Group 19" transform="translate(13.718 14.276)">
            <path id="Path_16" data-name="Path 16" class="cls-4" d="M149.487,286a5.715,5.715,0,1,0,5.487,5.71A5.608,5.608,0,0,0,149.487,286Z" transform="translate(-144 -286)"/>
          </g>
          <g id="Group_20" data-name="Group 20" transform="translate(0 14.276)">
            <path id="Path_17" data-name="Path 17" class="cls-4" d="M69.487,286a5.715,5.715,0,1,0,5.487,5.71A5.608,5.608,0,0,0,69.487,286Z" transform="translate(-64 -286)"/>
          </g>
          <g id="Group_21" data-name="Group 21" transform="translate(41.154 14.276)">
            <path id="Path_18" data-name="Path 18" class="cls-4" d="M309.487,286a5.715,5.715,0,1,0,5.487,5.71A5.608,5.608,0,0,0,309.487,286Z" transform="translate(-304 -286)"/>
          </g>
          <g id="Group_22" data-name="Group 22" transform="translate(54.873 14.276)">
            <path id="Path_19" data-name="Path 19" class="cls-4" d="M389.487,286a5.715,5.715,0,1,0,5.487,5.71A5.608,5.608,0,0,0,389.487,286Z" transform="translate(-384 -286)"/>
          </g>
          <g id="Group_23" data-name="Group 23" transform="translate(27.436 28.552)">
            <path id="Path_20" data-name="Path 20" class="cls-4" d="M229.487,366a5.715,5.715,0,1,0,5.487,5.71A5.608,5.608,0,0,0,229.487,366Z" transform="translate(-224 -366)"/>
          </g>
          <g id="Group_24" data-name="Group 24" transform="translate(13.718 28.552)">
            <path id="Path_21" data-name="Path 21" class="cls-4" d="M149.487,366a5.715,5.715,0,1,0,5.487,5.71A5.608,5.608,0,0,0,149.487,366Z" transform="translate(-144 -366)"/>
          </g>
          <g id="Group_25" data-name="Group 25" transform="translate(0 28.552)">
            <path id="Path_22" data-name="Path 22" class="cls-4" d="M69.487,366a5.715,5.715,0,1,0,5.487,5.71A5.608,5.608,0,0,0,69.487,366Z" transform="translate(-64 -366)"/>
          </g>
          <g id="Group_26" data-name="Group 26" transform="translate(41.154 28.552)">
            <path id="Path_23" data-name="Path 23" class="cls-4" d="M309.487,366a5.715,5.715,0,1,0,5.487,5.71A5.608,5.608,0,0,0,309.487,366Z" transform="translate(-304 -366)"/>
          </g>
          <g id="Group_27" data-name="Group 27" transform="translate(54.873 28.552)">
            <path id="Path_24" data-name="Path 24" class="cls-4" d="M389.487,366a5.715,5.715,0,1,0,5.487,5.71A5.608,5.608,0,0,0,389.487,366Z" transform="translate(-384 -366)"/>
          </g>
        </g>
        <g id="Group_30" data-name="Group 30" transform="translate(8.917)">
          <g id="Group_29" data-name="Group 29">
            <path id="Path_25" data-name="Path 25" class="cls-5" d="M54.058,24.276A2.1,2.1,0,0,1,52,22.134V12.141a2.059,2.059,0,1,1,4.115,0v9.993A2.1,2.1,0,0,1,54.058,24.276Z" transform="translate(-52 -10)"/>
          </g>
        </g>
        <g id="Group_32" data-name="Group 32" transform="translate(74.764)">
          <g id="Group_31" data-name="Group 31">
            <path id="Path_26" data-name="Path 26" class="cls-5" d="M438.058,24.276A2.1,2.1,0,0,1,436,22.134V12.141a2.059,2.059,0,1,1,4.115,0v9.993A2.1,2.1,0,0,1,438.058,24.276Z" transform="translate(-436 -10)"/>
          </g>
        </g>
        <g id="Group_33" data-name="Group 33" transform="translate(10.975 34.976)">
          <ellipse id="Ellipse_1" data-name="Ellipse 1" class="cls-6" cx="5.487" cy="5.71" rx="5.487" ry="5.71"/>
        </g>
        <g id="Group_34" data-name="Group 34" transform="translate(38.411 63.527)">
          <ellipse id="Ellipse_2" data-name="Ellipse 2" class="cls-6" cx="5.487" cy="5.71" rx="5.487" ry="5.71"/>
        </g>
        <g id="Group_35" data-name="Group 35" transform="translate(52.129 49.251)">
          <ellipse id="Ellipse_3" data-name="Ellipse 3" class="cls-6" cx="5.487" cy="5.71" rx="5.487" ry="5.71"/>
        </g>
      </g>
    </g>
  </g>
</svg>
