<svg xmlns="http://www.w3.org/2000/svg" viewBox="0 0 100.6 121.163">
  <defs>
    <style>
      .cls-1 {
        fill: #1b75bc;
      }
    </style>
  </defs>
  <g id="Group_16" data-name="Group 16" transform="translate(-1253.074 -421.697)">
    <g id="Group_12" data-name="Group 12" transform="translate(94.574 385.859)">
      <g id="Group_11" data-name="Group 11">
        <path id="Path_31" data-name="Path 31" class="cls-1" d="M1220,153.2h-44.7a1.9,1.9,0,0,0-1.9,1.9,1.839,1.839,0,0,0,1.9,1.9H1220a1.9,1.9,0,0,0,1.9-1.9A1.839,1.839,0,0,0,1220,153.2Z"/>
        <path id="Path_32" data-name="Path 32" class="cls-1" d="M1242.4,93.6h-5.6V88a1.9,1.9,0,0,0-1.9-1.9h-74.5a1.9,1.9,0,0,0-1.9,1.9v22.4a39.067,39.067,0,0,0,74.4,16.7h9.4a16.836,16.836,0,0,0,16.8-16.8A16.666,16.666,0,0,0,1242.4,93.6Zm0,29.8h-7.9a37.848,37.848,0,0,0,2.3-13v-13h5.6a13,13,0,0,1,0,26Z"/>
      </g>
    </g>
    <g id="Group_13" data-name="Group 13" transform="translate(94.574 385.859)">
      <path id="Path_33" data-name="Path 33" class="cls-1" d="M1199.1,77.7a2.237,2.237,0,0,0,1.8-1.1,6.6,6.6,0,0,0,.3-6.4,27.277,27.277,0,0,1,1.6-26.6,6.618,6.618,0,0,0,0-6.4c-1.1-1.8-2.9-1.8-4-.1-9.8,15.5-5.6,32.3-1.9,39A3.129,3.129,0,0,0,1199.1,77.7Z"/>
      <path id="Path_34" data-name="Path 34" class="cls-1" d="M1214.9,77.8a2.235,2.235,0,0,0,1.7-.9,6.638,6.638,0,0,0,.6-6.3,29.169,29.169,0,0,1-1.7-16.7c.5-2.4-.3-4.9-1.7-5.7-1.5-.8-3.1.4-3.6,2.8a42.548,42.548,0,0,0,2.5,25.1A2.614,2.614,0,0,0,1214.9,77.8Z"/>
      <path id="Path_35" data-name="Path 35" class="cls-1" d="M1183.1,77.9a2.059,2.059,0,0,0,1.6-.9,6.38,6.38,0,0,0,.6-6.3,29.352,29.352,0,0,1-1.4-16.8c.5-2.3-.2-4.9-1.6-5.8s-3.1.3-3.6,2.6a43.34,43.34,0,0,0,2.1,25.2A2.686,2.686,0,0,0,1183.1,77.9Z"/>
    </g>
  </g>
</svg>
