<svg xmlns="http://www.w3.org/2000/svg" viewBox="0 0 130.114 130.639">
  <defs>
    <style>
      .cls-1, .cls-3 {
        fill: #1b75bc;
      }

      .cls-2 {
        fill: #fff;
      }

      .cls-3 {
        stroke: #fff;
        stroke-miterlimit: 10;
      }
    </style>
  </defs>
  <g id="Group_14" data-name="Group 14" transform="translate(-94.515 -415.459)">
    <g id="Group_1" data-name="Group 1" transform="translate(94.574 385.859)">
      <path id="Path_1" data-name="Path 1" class="cls-1" d="M45.4,72.5l13.3,29.2h5L77.7,72l11.6,1.5L91.9,154H32.2l1.4-80.3Z"/>
      <path id="oversized-wine-glass-4_1_" class="cls-2" d="M82.7,153.7l-7.1-6.2c1.3-2.8-1.2-7.9-6-12.1a25.774,25.774,0,0,0-5.6-3.7l-6.7,7.7a25.06,25.06,0,0,0,4.4,5c4.8,4.2,10.2,5.9,12.8,4.3l7.1,6.2c-1.5,2.2-1.7,4.7-1.1,5.2.6.6,2.8-.8,4.8-3.1s3.1-4.6,2.4-5.2C87.1,151.4,84.6,151.9,82.7,153.7Z"/>
      <path id="Path_2" data-name="Path 2" class="cls-3" d="M79.2,71.7s61.6,2.8,8.1,73.5a13.8,13.8,0,0,1-3.6,3.2c-5.6,3.8-17.7.8-12.7-11.7a11.4,11.4,0,0,1,1.8-3,77.481,77.481,0,0,0,9.9-12.6c4.2-7,7.3-10.9,6.6-26.9"/>
      <path id="Path_3" data-name="Path 3" class="cls-3" d="M4.6,108c.3-.5,1-1.6,2.8-.5a14.651,14.651,0,0,0,4,1.8c1.3.4,22,8.2,22.9,8.6s2.4.5,5,5.1c1.1,1.9,1.9,1.8,3.5,2.6,1.1.5,4.4,1.9,5.3,2.2h0a1.64,1.64,0,0,1,1.4.6h0c.4.2.8.3,1,.4s.5.5.3.8l-1.5,3.9a.629.629,0,0,1-.8.4,5.132,5.132,0,0,0-1-.4h0A1.651,1.651,0,0,1,46,133h0c-1-.4-4.3-1.6-5.5-2-1.8-.5-2.3-1.1-4.4-.4-5,1.6-6.1.7-7.1.4s-21.5-8.6-22.7-9.1a12.884,12.884,0,0,0-4.1-1.4c-2.1-.4-1.8-1.7-1.7-2.3C.6,118.4,4.6,108,4.6,108Z"/>
      <path id="Path_4" data-name="Path 4" class="cls-3" d="M42.1,72.2S17.5,71.1,8.8,87.1s10,38.5,20.5,44.8c10.1,6,18.5-1.2,14.8-9.5a4.428,4.428,0,0,0-1.2-1.5c-2.9-2.3-14-11.8-17.4-20.4a6.872,6.872,0,0,1-.3-4c.7-2.8,2.5-6.3,8.2-6.3"/>
    </g>
    <g id="Group_3" data-name="Group 3" transform="translate(94.574 385.859)">
      <g id="Group_2" data-name="Group 2">
        <path id="Path_5" data-name="Path 5" class="cls-1" d="M120.3,153.1c-.4-.1-1.5-.3-1.2-2.1a12.994,12.994,0,0,0,.2-3.8c-.1-1.2-.3-20.7-.2-21.6,0-.9-.3-2.1,2.3-5.7,1.1-1.5.8-2.1.9-3.8.1-1,.1-4.2.1-5.1h0a1.7,1.7,0,0,1,0-1.4h0v-.9c0-.2.2-.6.5-.6h3.3c.3,0,.5.4.5.6v.9h0a1.708,1.708,0,0,1,0,1.4h0c0,.9,0,4.1.1,5.1.2,1.6-.1,2.3.9,3.8,2.6,3.6,2.3,4.8,2.3,5.7s-.1,20.4-.2,21.6a12.994,12.994,0,0,0,.2,3.8c.3,1.8-.7,2.1-1.2,2.1Z"/>
        <path id="Path_6" data-name="Path 6" class="cls-1" d="M112.2,145.4c2.6-.4,4.5-3,4.5-9.2H106.4c0,6.2,2,8.8,4.5,9.2v6.9h-2.6v.8h6.4v-.8h-2.6l.1-6.9Z"/>
      </g>
    </g>
    <g id="Group_4" data-name="Group 4" transform="translate(94.574 385.859)">
      <path id="Path_7" data-name="Path 7" class="cls-1" d="M51.6,77.5V68.6l8.2,2.8v3.9Z"/>
      <path id="Path_8" data-name="Path 8" class="cls-1" d="M70.2,69.2V78l-8.1-2.7V71.4Z"/>
    </g>
    <circle id="Ellipse_1" data-name="Ellipse 1" class="cls-1" cx="18.1" cy="18.1" r="18.1" transform="translate(136.774 415.459)"/>
  </g>
</svg>
