<svg xmlns="http://www.w3.org/2000/svg" viewBox="0 0 104.6 162.459">
  <defs>
    <style>
      .cls-1 {
        fill: #9CABB5;
      }
    </style>
  </defs>
  <g id="Group_6" data-name="Group 6" transform="translate(-175.3 -0.141)">
    <g id="Group_5" data-name="Group 5">
      <path id="Path_9" data-name="Path 9" class="cls-1" d="M214.2,24.8V40.9h26.3V24.4a9.438,9.438,0,0,0,5.9-5.5A9.211,9.211,0,0,0,241,7a8.312,8.312,0,0,0-4.1-.5A10.348,10.348,0,0,0,231,.8a10.228,10.228,0,0,0-12.6,4.6,10.155,10.155,0,0,0-10,6.5A9.977,9.977,0,0,0,214.2,24.8Z"/>
      <path id="Path_10" data-name="Path 10" class="cls-1" d="M243.2,146H175.3v16.6H279.9V146Z"/>
      <path id="Path_11" data-name="Path 11" class="cls-1" d="M222.9,58.9l5.8,6.4,6-5.9A68.073,68.073,0,0,0,222.9,58.9Z"/>
      <path id="Path_12" data-name="Path 12" class="cls-1" d="M215.4,109.6l-6.8,11.7H192.5V124h-2.9a1.8,1.8,0,1,0,0,3.6h2.9v15.2h41.7V127.6h2.9a1.8,1.8,0,1,0,0-3.6h-2.9v-2.7H210.9l6.4-11.1.9.3c10.6,3.5,15.1-13.2,4.6-16.7-7-2.3-17.7-5.5-22.2-11.8.1-.1.2-.1.2-.2a18.689,18.689,0,0,1,3.1-1.7v1.4a25.789,25.789,0,0,0,2.9,2c4.5,3.5,11.8,5.9,16.9,7.5l1.1.4a11.77,11.77,0,0,1,8.1,13.4c-.9,5.9-5.4,10-10.9,10a13.058,13.058,0,0,1-3.8-.6c-.2-.1-.4-.1-.6-.2l-2.8,4.6h21.7v2.7h.8a4.012,4.012,0,0,1,4,4,3.927,3.927,0,0,1-4,3.9h-.8v14.1h12.1v-62c.1.1.3.2.4.4,6.3,5.4,5.7,14.9,4.7,22.3-1.4,11,15.9,10.9,17.3,0,1.6-12.5-.5-25.4-9.8-34.5-5.8-5.7-13.6-8.4-21.6-9.3l-8.2,8,7.1,7.8-2.9,2.7L217.9,59.4a55.654,55.654,0,0,0-6.7,1.2c-12.4,2.5-31.4,8.6-28,24.6C186,98.6,203.1,105.5,215.4,109.6Z"/>
      <path id="Path_13" data-name="Path 13" class="cls-1" d="M240.2,42.8H214.4a12.9,12.9,0,0,0,25.8,0Z"/>
      <path id="Path_14" data-name="Path 14" class="cls-1" d="M204.4,109.4v9.4h3l4-6.7C209.2,111.3,206.8,110.4,204.4,109.4Z"/>
      <path id="Path_15" data-name="Path 15" class="cls-1" d="M189.1,105.6a4.922,4.922,0,0,0,.2,2.7,5.547,5.547,0,0,0,1.4,2.2c.6.6,1.2,1.1,1.6,1.6a4.789,4.789,0,0,1,1.1,1.5,2.186,2.186,0,0,1,.1,1.6,4.4,4.4,0,0,1-1.4,1.7,3.336,3.336,0,0,0,2.2-1.1,2.987,2.987,0,0,0,.7-2.7c-.4-1.9-1.9-3.1-2.7-4.1a5.7,5.7,0,0,1-1.6-3.3,7.155,7.155,0,0,1,1.4-3.9A5.878,5.878,0,0,0,189.1,105.6Z"/>
      <path id="Path_16" data-name="Path 16" class="cls-1" d="M197.2,110.8a3.722,3.722,0,0,0,.2,1.8,5.428,5.428,0,0,0,.9,1.5l1.1,1.1a7.006,7.006,0,0,1,.8,1,1.083,1.083,0,0,1,0,1.1,3.126,3.126,0,0,1-.9,1.1,2.33,2.33,0,0,0,1.5-.7,2.273,2.273,0,0,0,.5-1.8,6.6,6.6,0,0,0-1.9-2.8,4.185,4.185,0,0,1-1.1-2.2,6.155,6.155,0,0,1,.9-2.7A3.445,3.445,0,0,0,197.2,110.8Z"/>
    </g>
  </g>
</svg>
